{
  "animation": {
  "interpolate": true,
  	"frames": [
  		{
  			"index": 0,
  			"time": 8
  		},
  		{
  			"index": 1,
  			"time": 2
  		},
  		{
  			"index": 2,
  			"time": 2
  		},
  		{
  			"index": 3,
  			"time": 8
  		},
  		{
  			"index": 2,
  			"time": 2
  		},
  		{
  			"index": 1,
  			"time": 2
  		}
  	]
  }  
}

